{
  "extends": [
    "tslint-microsoft-contrib/recommended"
  ],
  "linterOptions": {
    "exclude": [
      "dist/*",
      "node_modules/*"
    ]
  },
  "jsRules": {
    "no-empty": true
  },
  "rules": {
    "mocha-no-side-effect-code": false,
    "missing-jsdoc": false,
    "no-relative-imports": false,
    "export-name": false,
    "promise-function-async": false,
    "no-void-expression": false,
    "no-redundant-jsdoc": false,
    "prefer-type-cast": false,
    "typedef": [
      true,
      "parameter",
      "arrow-parameter",
      "property-declaration",
      "member-variable-declaration"
    ]
  }
}
